{
  "info" : {
    "version" : 1,
    "author" : "xcode"
  },
  "properties" : {
    "preview" : "preview.jpg",
    "rotation" : [
      0,
      1,
      0,
      -1.8899930715560913
    ],
    "content" : "trackingData.cv3dmap",
    "translation" : [
      -0.012463629245758057,
      0.19927579164505005,
      -0.028059840202331543
    ],
    "version" : 1
  }
}